Introduction to Precisely
…
higher_risk <- tibble(
  precision = seq(from = .02, to = .20, by = .005),
  exposed = .4,
  unexposed = .3,
  group_ratio = 1
)

risk_difference_data <- bind_rows(lower_risk, higher_risk) %>% 
  pmap_dfr(n_risk_difference)

risk_difference_data
#> # A tibble: 74 × 9
#>    n_exposed n_unexposed n_total risk_difference precision exposed unexposed
#>        <dbl>       <dbl>   <dbl>           <dbl>     <dbl>   <dbl>     <dbl>
#>  1     9604.       9604.  19207.             0.1     0.02      0.2       0.1
#>  2     6146.       6146.  12293.             0.1     0.025     0.2       0.1
#>  3     4268.       4268.   8537.             0.1     0.03      0.2       0.1
#>  4     3136.       3136.   6272.             0.1     0.035     0.2       0.1
#>  5     2401.       2401.   4802.             0.1     0.04      0.2       0.1
#>  6     1897.       1897.   3794.             0.1     0.045     0.2       0.1
#>  7     1537.       1537.   3073.             0.1     0.05      0.2       0.1
#>  8     1270.       1270.   2540.             0.1     0.055     0.2       0.1
#>  9     1067.       1067.   2134.             0.1     0.06      0.2       0.1
#> 10      909.        909.   1818.             0.1     0.065     0.2       0.1
#> # … with 64 more rows, and 2 more variables: group_ratio <dbl>, ci <dbl>
…
